Runs EMtree for several covariates choices — ComparEMtree • EMtree
…
#> Convergence took 0.08 secs  and  8  iterations.
#> Convergence took 0.21 secs  and  12  iterations.
#> Convergence took 0.09 secs  and  9  iterations.0.43 secs 
#> 
#> model 2 : Computing  3 probability matrices with 1 core(s)... 
#> Convergence took 0.1 secs  and  10  iterations.
#> Convergence took 0.11 secs  and  10  iterations.
#> Convergence took 0.09 secs  and  10  iterations.0.32 secs 
#> 
#> model both : Computing  3 probability matrices with 1 core(s)... 
#> Convergence took 0.09 secs  and  13  iterations.
#> Convergence took 0.08 secs  and  9  iterations.
#> Convergence took 0.07 secs  and  8  iterations.0.26 secs 
#> 
#> # A tibble: 135 x 4
#>    node1 node2 model weight
#>    <chr> <chr> <chr>  <dbl>
#>  1 1     2     1          0
#>  2 1     3     1          1
#>  3 2     3     1          1
#>  4 1     4     1          0
#>  5 2     4     1          0
#>  6 3     4     1          0
#>  7 1     5     1          0
#>  8 2     5     1          0
#>  9 3     5     1          0
#> 10 4     5     1          1
#> # … with 125 more rows
…
